%YAML 1.1
%TAG !u! tag:unity3d.com,2011:
--- !u!74 &7400000
AnimationClip:
  m_ObjectHideFlags: 0
  m_PrefabParentObject: {fileID: 0}
  m_PrefabInternal: {fileID: 0}
  m_Name: Brillo
  serializedVersion: 6
  m_Legacy: 0
  m_Compressed: 0
  m_UseHighQualityCurve: 1
  m_RotationCurves: []
  m_CompressedRotationCurves: []
  m_EulerCurves: []
  m_PositionCurves: []
  m_ScaleCurves: []
  m_FloatCurves:
  - curve:
      serializedVersion: 2
      m_Curve:
      - time: 0
        value: -79.28
        inSlope: -18.186666
        outSlope: -18.186666
        tangentMode: 10
      - time: 0.375
        value: -86.1
        inSlope: -4.026673
        outSlope: -4.026673
        tangentMode: 10
      - time: 0.75
        value: -82.3
        inSlope: 9.093332
        outSlope: 9.093332
        tangentMode: 10
      - time: 1.125
        value: -79.28
        inSlope: 8.053345
        outSlope: 8.053345
        tangentMode: 10
      m_PreInfinity: 2
      m_PostInfinity: 2
      m_RotationOrder: 4
    attribute: m_AnchoredPosition.y
    path: 
    classID: 224
    script: {fileID: 0}
  - curve:
      serializedVersion: 2
      m_Curve:
      - time: 0
        value: 32.54
        inSlope: -36.373337
        outSlope: -36.373337
        tangentMode: 10
      - time: 0.375
        value: 18.9
        inSlope: -8.053334
        outSlope: -8.053334
        tangentMode: 10
      - time: 0.75
        value: 26.5
        inSlope: 18.186668
        outSlope: 18.186668
        tangentMode: 10
      - time: 1.125
        value: 32.54
        inSlope: 16.106668
        outSlope: 16.106668
        tangentMode: 10
      m_PreInfinity: 2
      m_PostInfinity: 2
      m_RotationOrder: 4
    attribute: m_SizeDelta.y
    path: 
    classID: 224
    script: {fileID: 0}
  m_PPtrCurves: []
  m_SampleRate: 40
  m_WrapMode: 0
  m_Bounds:
    m_Center: {x: 0, y: 0, z: 0}
    m_Extent: {x: 0, y: 0, z: 0}
  m_ClipBindingConstant:
    genericBindings:
    - path: 0
      attribute: 538195251
      script: {fileID: 0}
      classID: 224
      customType: 0
      isPPtrCurve: 0
    - path: 0
      attribute: 38095219
      script: {fileID: 0}
      classID: 224
      customType: 0
      isPPtrCurve: 0
    pptrCurveMapping: []
  m_AnimationClipSettings:
    serializedVersion: 2
    m_AdditiveReferencePoseClip: {fileID: 0}
    m_AdditiveReferencePoseTime: 0
    m_StartTime: 0
    m_StopTime: 1.125
    m_OrientationOffsetY: 0
    m_Level: 0
    m_CycleOffset: 0
    m_HasAdditiveReferencePose: 0
    m_LoopTime: 1
    m_LoopBlend: 0
    m_LoopBlendOrientation: 0
    m_LoopBlendPositionY: 0
    m_LoopBlendPositionXZ: 0
    m_KeepOriginalOrientation: 0
    m_KeepOriginalPositionY: 1
    m_KeepOriginalPositionXZ: 0
    m_HeightFromFeet: 0
    m_Mirror: 0
  m_EditorCurves:
  - curve:
      serializedVersion: 2
      m_Curve:
      - time: 0
        value: -79.28
        inSlope: -18.186666
        outSlope: -18.186666
        tangentMode: 10
      - time: 0.375
        value: -86.1
        inSlope: -4.026673
        outSlope: -4.026673
        tangentMode: 10
      - time: 0.75
        value: -82.3
        inSlope: 9.093332
        outSlope: 9.093332
        tangentMode: 10
      - time: 1.125
        value: -79.28
        inSlope: 8.053345
        outSlope: 8.053345
        tangentMode: 10
      m_PreInfinity: 2
      m_PostInfinity: 2
      m_RotationOrder: 4
    attribute: m_AnchoredPosition.y
    path: 
    classID: 224
    script: {fileID: 0}
  - curve:
      serializedVersion: 2
      m_Curve:
      - time: 0
        value: 32.54
        inSlope: -36.373337
        outSlope: -36.373337
        tangentMode: 10
      - time: 0.375
        value: 18.9
        inSlope: -8.053334
        outSlope: -8.053334
        tangentMode: 10
      - time: 0.75
        value: 26.5
        inSlope: 18.186668
        outSlope: 18.186668
        tangentMode: 10
      - time: 1.125
        value: 32.54
        inSlope: 16.106668
        outSlope: 16.106668
        tangentMode: 10
      m_PreInfinity: 2
      m_PostInfinity: 2
      m_RotationOrder: 4
    attribute: m_SizeDelta.y
    path: 
    classID: 224
    script: {fileID: 0}
  m_EulerEditorCurves: []
  m_HasGenericRootTransform: 0
  m_HasMotionFloatCurves: 0
  m_GenerateMotionCurves: 0
  m_Events: []
